^C:\PROGRAMMING\CPLUSPLUS\2013SPRING\LINKLIST\RUNNERTESTANDOTHER\RUNNERTESTANDOTHER\DEBUG\MAIN.OBJ
C:\PROGRAMMING\CPLUSPLUS\2013SPRING\LINKLIST\RUNNERTESTANDOTHER\DEBUG\RUNNERTESTANDOTHER.ILK
C:\PROGRAMMING\CPLUSPLUS\2013SPRING\LINKLIST\RUNNERTESTANDOTHER\DEBUG\RUNNERTESTANDOTHER.EXE
C:\PROGRAMMING\CPLUSPLUS\2013SPRING\LINKLIST\RUNNERTESTANDOTHER\DEBUG\RUNNERTESTANDOTHER.PDB
